C:\Users\Desarrollo\Documents\NetBeansProjects\calculadoraInteres\src\main\java\root\model\CalcularInteres.java
C:\Users\Desarrollo\Documents\NetBeansProjects\calculadoraInteres\src\main\java\com\peramire\calculadorainteres\resources\JavaEE8Resource.java
C:\Users\Desarrollo\Documents\NetBeansProjects\calculadoraInteres\src\main\java\com\peramire\calculadorainteres\JAXRSConfiguration.java
C:\Users\Desarrollo\Documents\NetBeansProjects\calculadoraInteres\src\main\java\root\controller\Controller.java
